%YAML 1.1
%TAG !u! tag:unity3d.com,2011:
--- !u!1001 &3146646760732264084
PrefabInstance:
  m_ObjectHideFlags: 0
  serializedVersion: 2
  m_Modification:
    m_TransformParent: {fileID: 0}
    m_Modifications:
    - target: {fileID: 617251869285709779, guid: c327232b6a256f148ace71b5ac2229ee, type: 3}
      propertyPath: m_LocalRotation.w
      value: 0.7071068
      objectReference: {fileID: 0}
    - target: {fileID: 617251869285709779, guid: c327232b6a256f148ace71b5ac2229ee, type: 3}
      propertyPath: m_LocalRotation.x
      value: 0
      objectReference: {fileID: 0}
    - target: {fileID: 617251869285709779, guid: c327232b6a256f148ace71b5ac2229ee, type: 3}
      propertyPath: m_LocalRotation.y
      value: 0.7071068
      objectReference: {fileID: 0}
    - target: {fileID: 617251869285709779, guid: c327232b6a256f148ace71b5ac2229ee, type: 3}
      propertyPath: m_LocalRotation.z
      value: 0
      objectReference: {fileID: 0}
    - target: {fileID: 617251869285709779, guid: c327232b6a256f148ace71b5ac2229ee, type: 3}
      propertyPath: m_LocalEulerAnglesHint.y
      value: 90
      objectReference: {fileID: 0}
    - target: {fileID: 6102311995318496321, guid: c327232b6a256f148ace71b5ac2229ee, type: 3}
      propertyPath: m_RootOrder
      value: 0
      objectReference: {fileID: 0}
    - target: {fileID: 6102311995318496321, guid: c327232b6a256f148ace71b5ac2229ee, type: 3}
      propertyPath: m_LocalPosition.x
      value: 0
      objectReference: {fileID: 0}
    - target: {fileID: 6102311995318496321, guid: c327232b6a256f148ace71b5ac2229ee, type: 3}
      propertyPath: m_LocalPosition.y
      value: 0
      objectReference: {fileID: 0}
    - target: {fileID: 6102311995318496321, guid: c327232b6a256f148ace71b5ac2229ee, type: 3}
      propertyPath: m_LocalPosition.z
      value: 0
      objectReference: {fileID: 0}
    - target: {fileID: 6102311995318496321, guid: c327232b6a256f148ace71b5ac2229ee, type: 3}
      propertyPath: m_LocalRotation.w
      value: 1
      objectReference: {fileID: 0}
    - target: {fileID: 6102311995318496321, guid: c327232b6a256f148ace71b5ac2229ee, type: 3}
      propertyPath: m_LocalRotation.x
      value: 0
      objectReference: {fileID: 0}
    - target: {fileID: 6102311995318496321, guid: c327232b6a256f148ace71b5ac2229ee, type: 3}
      propertyPath: m_LocalRotation.y
      value: 0
      objectReference: {fileID: 0}
    - target: {fileID: 6102311995318496321, guid: c327232b6a256f148ace71b5ac2229ee, type: 3}
      propertyPath: m_LocalRotation.z
      value: 0
      objectReference: {fileID: 0}
    - target: {fileID: 6102311995318496321, guid: c327232b6a256f148ace71b5ac2229ee, type: 3}
      propertyPath: m_LocalEulerAnglesHint.x
      value: 0
      objectReference: {fileID: 0}
    - target: {fileID: 6102311995318496321, guid: c327232b6a256f148ace71b5ac2229ee, type: 3}
      propertyPath: m_LocalEulerAnglesHint.y
      value: 0
      objectReference: {fileID: 0}
    - target: {fileID: 6102311995318496321, guid: c327232b6a256f148ace71b5ac2229ee, type: 3}
      propertyPath: m_LocalEulerAnglesHint.z
      value: 0
      objectReference: {fileID: 0}
    - target: {fileID: 6102311995318496322, guid: c327232b6a256f148ace71b5ac2229ee, type: 3}
      propertyPath: m_Name
      value: Tile_RoadStraight90
      objectReference: {fileID: 0}
    m_RemovedComponents: []
  m_SourcePrefab: {fileID: 100100000, guid: c327232b6a256f148ace71b5ac2229ee, type: 3}
